{
  "project_info": {
    "project_number": "127366297385",
    "firebase_url": "https://test-7afaa.firebaseio.com",
    "project_id": "test-7afaa",
    "storage_bucket": "test-7afaa.appspot.com"
  },
  "client": [
    {
      "client_info": {
        "mobilesdk_app_id": "1:127366297385:android:39edc59b7833da50",
        "android_client_info": {
          "package_name": "com.example.test"
        }
      },
      "oauth_client": [
        {
          "client_id": "127366297385-se5lljk0srvftdp5pn4do54krjtqaerj.apps.googleusercontent.com",
          "client_type": 1,
          "android_info": {
            "package_name": "com.example.test",
            "certificate_hash": "562496356836b8c1aeedb208ed2dffd31995813c"
          }
        },
        {
          "client_id": "127366297385-fp5lbqt9rihn97vf70o1md6il1si24gi.apps.googleusercontent.com",
          "client_type": 3
        }
      ],
      "api_key": [
        {
          "current_key": "AIzaSyBYRd_ra-UYI8CdwqbskQejN308RGd4Cs8"
        }
      ],
      "services": {
        "appinvite_service": {
          "other_platform_oauth_client": [
            {
              "client_id": "127366297385-fp5lbqt9rihn97vf70o1md6il1si24gi.apps.googleusercontent.com",
              "client_type": 3
            }
          ]
        }
      }
    }
  ],
  "configuration_version": "1"
}